[gd_scene load_steps=8 format=1]

[ext_resource path="res://scripts/main.gd" type="Script" id=1]
[ext_resource path="res://assets/bg.jpg" type="Texture" id=2]
[ext_resource path="res://assets/cursor.png" type="Texture" id=3]
[ext_resource path="res://assets/font.fnt" type="BitmapFont" id=4]
[ext_resource path="res://assets/music.ogg" type="AudioStream" id=5]

[sub_resource type="Animation" id=1]

resource/name = "Cursor"
length = 1.0
loop = true
step = 0.1
tracks/0/type = "value"
tracks/0/path = NodePath(".:visibility/opacity")
tracks/0/interp = 1
tracks/0/imported = false
tracks/0/keys = { "times":FloatArray( 0, 0.5 ), "transitions":FloatArray( 1, 1 ), "update":0, "values":[ 1.0, 0.25 ] }
tracks/1/type = "value"
tracks/1/path = NodePath(".:transform/scale")
tracks/1/interp = 1
tracks/1/imported = false
tracks/1/keys = { "times":FloatArray( 0, 0.5 ), "transitions":FloatArray( 1, 1 ), "update":0, "values":[ Vector2( 1, 1 ), Vector2( 0.8, 0.8 ) ] }

[sub_resource type="Animation" id=2]

resource/name = "Load"
length = 2.0
loop = false
step = 0.1
tracks/0/type = "value"
tracks/0/path = NodePath(".:visibility/opacity")
tracks/0/interp = 1
tracks/0/imported = false
tracks/0/keys = { "times":FloatArray( 0.5, 1 ), "transitions":FloatArray( 1, 1 ), "update":0, "values":[ 0.0, 1.0 ] }
tracks/1/type = "value"
tracks/1/path = NodePath("Cursor:visibility/opacity")
tracks/1/interp = 1
tracks/1/imported = false
tracks/1/keys = { "times":FloatArray( 1.5, 2 ), "transitions":FloatArray( 1, 1 ), "update":0, "values":[ 0.0, 1.0 ] }

[node name="Node2D" type="Node2D"]

script/script = ExtResource( 1 )

[node name="BackgroundSprite" type="Sprite" parent="."]

texture = ExtResource( 2 )
centered = false

[node name="Cursor" type="Sprite" parent="."]

transform/pos = Vector2( 638.463, 405.285 )
texture = ExtResource( 3 )

[node name="AnimationPlayer" type="AnimationPlayer" parent="Cursor"]

playback/process_mode = 1
playback/default_blend_time = 0.0
root/root = NodePath("..")
anims/Cursor = SubResource( 1 )
playback/active = true
playback/speed = 1.0
blend_times = [  ]
autoplay = ""

[node name="Label" type="Label" parent="."]

focus/ignore_mouse = true
focus/stop_mouse = true
size_flags/horizontal = 2
size_flags/vertical = 0
margin/left = 11.0
margin/top = 328.0
margin/right = 1273.0
margin/bottom = 380.0
custom_fonts/font = ExtResource( 4 )
custom_colors/font_color = Color( 0, 0, 0, 1 )
custom_colors/font_color_shadow = Color( 0.40625, 0.40625, 0.40625, 1 )
align = 1
percent_visible = 1.0
lines_skipped = 0
max_lines_visible = -1

[node name="LoadPlayer" type="AnimationPlayer" parent="."]

playback/process_mode = 1
playback/default_blend_time = 0.0
root/root = NodePath("..")
anims/Load = SubResource( 2 )
playback/active = true
playback/speed = 1.0
blend_times = [  ]
autoplay = "Load"

[node name="StreamPlayer" type="StreamPlayer" parent="."]

stream/stream = ExtResource( 5 )
stream/play = false
stream/loop = true
stream/volume_db = 0.0
stream/autoplay = true
stream/paused = false
stream/loop_restart_time = 0.0
stream/buffering_ms = 500

[connection signal="finished" from="LoadPlayer" to="." method="_on_LoadPlayer_finished"]


